1 10 20
100 200 125
201 210 89
900 1000 174
12 8345 262
457 982 179
89 20395 279
55 55 113
234 8 128
24 943 179
23 25 24
67 986 179
4 96 116
987 7 179
26 968 179
92 3 116
209 83475 351
23 98467 351
978346 34 525
734 9836 262
7645 23 262
87234 38 351
65 809 171
209783 43 383
2 3456 217
1 1 1
2345 8534 262
3594 92 217
74 9354 262
923 23579 282
13 9723 262
8 34 112
24 936 179
273 486 144
84 197 125
60 3 113
2469 25 209
2379 57 183
8 5 17
26987 239587 443
973 3967 238
237 498 144
209375 98235 383
2530 2452 209
809 810 47
25 34609 311
7 34 112
8 9 20
3864 3425 238
9346 28234 308
364235 843345 525
2 42 112
23 9023 262
42 34 110
36 2398 183
465 343 134
2539 23985 282
9846 292352 443
394786 5854 443
75 98 119
5 238 128
346 520 142
983 52 179
35 25 112
8 13 20
23 23406 279
3 34 112
2 3408 217
309 3609 217
2975 4785 238
34609 78942 351
4390 345089 443
20389 230598 386
20589 25085 282
2509 8684 262
2974 3253 199
30496 30496 34
235 235 128
2346 23095 279
2096 34968 311
943 8025 262
234 858 171
2323 25524 282
230984 289354 407
20895 23456 269
2359 843 183
98235 92764 328
239 5498 238
9845 130 262
4 8 17
934 1 179
95 5 116
984 96 179
48 42 105
248 83 128
4 5 6
56 2498 209
665 845 171
384 444 134
44 985 179
934 955 174
34 90 116
230940 289459 407
45 956 179
9034 34843 311
