796057 987039 525
452608 503855 444
392254 823165 509
363858 436762 449
113830 570065 470
505608 947965 525
131814 907661 525
32216 245733 443
867666 282226 525
210850 908987 525
456831 578201 470
841349 920559 476
90149 22002 351
897492 477182 525
621282 73679 470
23159 129988 354
804587 750390 468
304117 957348 525
572858 254395 470
143765 78398 375
648848 656745 385
724757 652668 504
245818 633495 509
395822 995302 525
573948 48823 470
420055 831106 509
668031 277270 509
200789 82791 383
865663 525983 525
796992 992162 525
178737 818783 509
213251 318144 443
306510 884436 525
809531 70578 509
138223 281478 443
551306 77850 470
397174 283360 441
367802 640961 509
937345 958246 507
261888 351154 441
983664 344597 525
423593 856797 525
631712 675747 442
344797 827618 509
230469 609349 470
147187 289775 443
908254 78783 525
657585 555262 509
992785 144204 525
852191 835921 525
758247 870977 525
855526 800795 525
386448 854821 525
437179 822006 509
44195 271620 443
136910 214570 383
117782 664478 509
829223 944096 525
73036 802906 509
16183 814614 509
850750 119431 525
935843 44609 525
141500 131766 344
624918 658175 509
546315 70941 470
404177 349270 436
684635 492499 509
732112 793847 468
614150 944595 525
543623 430024 470
536653 695956 509
266748 597814 470
613664 92725 470
922425 367297 525
445855 235530 449
261851 609306 470
726023 841956 525
613841 501534 470
878473 231030 525
127675 489956 449
950550 242080 525
392645 997630 525
713108 918975 525
642101 420940 509
901988 236402 525
650324 292502 509
817371 216050 509
570499 897360 525
870955 679920 525
872544 314900 525
45658 363475 443
484712 964585 525
640042 154157 509
72120 755463 509
15513 97779 351
135990 838796 525
96661 331741 443
211819 75253 383
704129 978418 525
810173 32617 509
958129 430866 525
488775 488708 320
343455 238806 407
451166 878802 525
108545 551311 470
221117 438441 449
889097 223734 525
948493 118851 525
335614 163687 443
678094 873694 525
221606 699633 509
516849 178822 470
195202 816239 509
308324 886677 525
295650 697179 509
655335 499911 509
959117 893810 507
902571 778510 525
880718 115086 525
831317 878544 525
661853 177430 509
935235 410253 525
148278 569084 470
934449 701800 525
216653 176502 386
711623 667136 504
399763 606706 470
832482 188835 509
161883 224121 386
174781 339268 443
199234 77079 383
299968 108684 443
738697 583285 509
314217 174838 443
303962 360068 441
92443 888785 525
954047 298800 525
167081 187797 365
936431 963371 507
518913 728436 509
627905 220845 509
670347 913034 525
873759 191066 525
40827 683019 509
627099 51893 509
175018 575387 470
795072 409289 509
841032 820203 525
65263 425219 449
764747 145675 509
831249 394754 509
853161 975519 507
973029 217386 525
596125 235883 470
563356 601597 434
203496 779346 509
32559 337297 443
520645 464026 470
434691 925695 525
309494 566158 470
625599 660770 509
247968 357939 441
4648 111096 354
821003 124935 509
813218 805388 406
53769 948823 525
649731 119275 509
884584 362181 525
568801 298629 470
634306 355603 509
923512 731868 525
772615 923082 525
471266 972274 525
555334 707832 509
268632 447213 449
292867 134268 443
71527 423748 449
181504 72378 383
589483 119627 470
470009 107771 449
789977 100253 509
873349 360470 525
693297 951376 525
487428 924329 525
321134 69772 443
513419 807090 509
109112 133380 349
546084 218488 470
145393 638464 509
404145 411547 449
482418 287385 449
353922 743850 509
242725 248032 350
684620 114398 509
962943 454827 525
441667 628646 509
192035 350881 443
23785 708102 509
432989 901375 525
310823 102426 443
