1 10 20
100 200 125
201 210 89
900 1000 174
1 1 1
1 2 2
10 1 20
66 234 128
4 1234 182
34 23 112
6 2 9
77 111 119
2 55 113
1 777 171
56 7567 262
234 7777 262
3 333 144
6 5656 238
534 886 179
1 999 179
34 8727 262
2 666 145
282 33 128
88 4 116
45 89 116
12 67 113
42 814 171
3845 974 238
2 4 8
124 839 171
38791 8379 324
73 8937 262
83749 87 351
39743 928 324
3767 83742 351
83736 3786 351
73641 38 340
1 79629 351
87 32877 308
3624 931 217
37490 311 324
3974 31078 308
374103 374 443
31691 493 308
871 96413 351
786 6319 262
831 1937 182
47613 1936 324
19634 197 279
136 17641 276
1964 186419 383
19264 196 279
629 109 144
21 23 16
23211 2312 279
76 31 116
1343 1 182
4179 31 238
69 85 116
444 111 144
294 322 131
34722 423432 449
4562 2356 238
126 235 128
1365 2362 183
67235 1363 340
12343 1356 268
18 1074 179
928374 29120 525
475 235 144
34586 27834 311
124 342 144
576 23978 282
23576 23 282
32746 34 308
23745 1 282
2 6498 262
28 383 144
4234 234 238
123 453 144
1261 33 182
234 144 128
642 6387 262
34873 593 311
34763 33 311
5638 582 238
238 3298 217
122 9344 262
533 911 179
819 371 171
333 777 171
222 331 144
362 193627 383
273 112 128
3792 62394 340
2729 1834 209
379 3712 238
34792 122 311
47832 4902 324
34823 80003 351
33 50003 324
17 20001 279
46 80006 351
32647 30201 285
10301 10401 224
5849 2920 238
19873 29184 308
2879 19403 279
21632 12993 279
1883 1118 182
28842 38821 324
48921 1938 324
2938 2931 142
289 124387 354
18398 12938 279
342 33321 308
9932 12314 268
3820 43982 324
3738 293 238
4729 44 238
166 2002 182
482 1394 182
23941 555 282
12 5555 238
24 233 128
5 793 171
571 385 142
273 5 128
472 44 144
3379 382 217
3748 3029 238
3724 302 238
4372 43 238
2749 23 209
29 3334 217
18 3001 217
3891 3004 238
8 3001 217
483 49930 324
438 4001 238
583 5920 238
48 39293 324
483 22 144
394 12 144
3829 12 238
4832 34 238
2838 3095 217
832 4 171
1 9 20
2 9 20
5 9 20
4 9 20
12 9 20
438 9 144
4276 471 238
9842 728 262
3948 47 238
372 43 144
58 2348 183
349 29 144
4872 93 238
4729 1 238
38 344 144
41993 4444 324
38200 7000 324
3278 4 217
389 2222 182
489 333 142
48913 333 324
4193 430 238
41 90 116
445 9000 262
12 932 179
328 432 134
48 4234 238
1284 23 182
489 194 144
392 43 144
48192 493 324
24839 24 282
483 42 144
3 19980 279
35 1089 179
47 2 112
3 11 20
2 44 112
239 55 128
182 3 125
183 6 125
3 111 119
3 8060 262
29 305 128
283 301 118
48 3001 217
394 703 171
493 80285 351
382 5028 238
492 501 111
493 401 142
385 204 144
28 6 112
4290 640 238
48392 539 324
48983 29 324
43991 439 324
604 33 144
