1 10 20
100 200 125
201 210 89
900 1000 174
314122 71039 443
182698 128840 383
800659 718929 468
833356 201812 509
630749 435936 509
920520 598845 525
909275 874600 445
948709 419801 525
930611 351586 525
810253 768832 468
94986 961791 525
19182 985635 525
789335 647735 504
11732 867362 525
433768 4987 449
347580 931892 525
785011 340144 509
923863 48664 525
241519 281038 407
286639 767304 509
730161 634817 504
823188 871838 525
348995 714465 509
396344 487184 449
448491 215903 449
719011 462686 509
368307 761376 509
784002 859202 525
118440 554961 470
33941 937669 525
556170 365534 470
699615 570656 509
950900 98488 525
890434 449085 525
236815 761798 509
276974 186598 443
744029 18273 509
810971 597462 509
714958 553046 509
745544 856436 525
222758 849759 525
696580 914031 525
178556 765064 509
185165 766057 509
325449 18740 443
386217 362928 423
870022 539794 525
149494 433716 449
146143 316780 443
644519 774531 504
61605 409938 443
401421 753614 509
463786 931481 525
874608 96016 525
658384 385770 509
496139 71488 449
863672 292098 525
486473 286576 449
762692 925996 525
392807 763628 509
928919 583961 525
993325 569421 525
714931 659706 504
96060 728656 509
876405 306732 525
136884 755733 509
55422 354152 443
53454 483629 449
419101 287838 449
442751 939193 525
809525 834354 450
650232 646355 385
416494 893505 525
405824 162526 443
118109 61926 354
482219 335369 449
301781 472554 449
620718 284450 470
338445 372326 441
478818 296647 449
650880 40237 509
831830 750708 468
262146 777746 509
754859 303826 509
126689 105315 354
368537 299400 441
158152 247696 443
340841 522444 470
759752 276538 509
320276 897345 525
932646 140127 525
495799 357427 449
844453 224783 525
8721 941422 525
379923 681564 509
586235 176725 470
116325 538959 470
407901 435148 449
819441 454706 509
536101 328670 470
174881 11897 383
257257 323714 407
792925 778911 437
134406 811100 509
711865 957175 525
705409 322397 509
781009 622388 509
7435 312414 443
218669 687509 509
593619 425200 470
514000 640322 509
852897 369074 525
861543 271486 525
367999 781853 509
540050 531806 377
262876 812767 509
705809 826410 468
142061 886188 525
575960 792946 509
460931 301059 449
612784 677575 509
203999 639483 509
58031 767863 509
262668 718917 509
333663 1611 443
312825 279472 389
623567 475315 470
468384 578842 470
48865 32260 324
229303 950094 525
980007 237811 525
70065 627959 509
751891 506036 509
922802 40563 525
45275 804410 509
412326 37474 449
596133 680213 509
250184 964120 525
380003 501963 449
603495 600446 403
409238 279457 441
218313 934395 525
705116 478785 509
803842 749845 468
333055 252578 407
879469 150169 525
39759 705643 509
804888 84892 509
541764 756716 509
430045 340715 449
40680 951672 525
121037 617824 470
134036 352897 443
390936 215041 443
68882 39966 340
3212 2877 217
971214 30542 525
26972 870168 525
163880 629112 509
553350 961321 525
80145 637411 509
199709 654858 509
883805 470933 525
946303 969304 414
933753 268399 525
819350 440542 509
310760 637532 509
843998 419126 525
505862 307109 449
789462 574216 509
139277 880315 525
807810 731491 468
130468 383360 443
315158 688716 509
16589 241213 443
799503 263702 509
237340 163900 443
138909 76643 354
781760 859020 525
31511 49931 324
178689 671441 509
542543 12092 470
92968 677476 509
168823 611810 470
652192 183324 509
160417 517155 470
200346 597462 470
917910 506138 525
840096 135803 525
972332 740583 525
463189 917872 525
146141 517980 470
792972 946636 525
997163 989179 365
563615 685142 509
840868 389849 525
345637 581146 470
377519 940820 525
700205 856927 525
958942 22923 525
373313 629251 509
227856 190737 386
278750 689289 509
493850 686638 509
154672 127255 375
149268 398059 443
955130 996249 458
213269 278405 443
649818 29760 509
435630 709407 509
565502 5443 470
58900 310819 443
255327 566859 470
285541 139503 443
546751 770329 509
957281 435685 525
583750 403251 470
94144 863584 525
335135 706863 509
972896 622511 525
315813 107494 443
705880 829203 468
818141 797274 406
719628 23822 509
800832 790453 468
683106 797328 504
75454 625922 470
154361 440717 449
606678 814170 509
21853 329945 443
878234 554936 525
214931 961818 525
65531 589689 470
770974 847984 525
95523 556542 470
608953 19373 470
663079 189024 509
379147 406834 436
875147 111983 525
958126 893787 507
786369 836639 468
853019 222397 525
869941 803987 525
307233 981200 525
210722 530654 470
125678 69431 354
441399 286990 449
23041 803247 509
114611 304720 443
452592 408168 449
