3376 3349 181
7462 7754 208
3160 750 217
1795 9766 262
7763 7810 221
1440 749 182
7747 995 262
6711 1526 262
2068 7740 262
3861 9281 262
4999 7813 262
2876 2759 173
3605 885 217
9995 9380 242
5244 5256 130
5591 9657 262
115 6332 262
9130 1134 262
1414 8866 262
8735 9582 260
9995 825 262
7842 9667 260
4603 1684 238
6605 4725 262
5823 6151 218
1488 1296 177
173 3649 217
698 5864 238
5098 401 238
6429 354 262
2821 4951 238
3585 1466 217
715 3478 217
6549 4938 262
8525 58 262
5556 1695 238
9319 8787 260
1590 5751 238
7334 417 262
5211 89 238
4281 5084 215
2260 5092 238
5099 9918 262
8565 1740 262
8090 9622 260
9288 5830 262
3689 1029 217
3554 6423 262
2425 5164 238
5377 5564 205
5278 3781 215
9434 5480 262
6640 1339 262
4936 7128 262
9676 5200 262
6315 7426 257
4042 2740 238
8416 4169 262
1812 8352 262
6924 108 262
3005 546 217
2661 5042 238
4432 5941 236
9387 4083 262
3498 5698 238
3202 4592 238
7628 4397 262
4913 4065 215
3456 3061 199
4144 3299 238
5805 55 238
7115 1595 262
7358 1972 262
2000 4415 238
4895 7261 262
8563 7365 252
904 5192 238
8035 4377 262
8534 6684 257
2489 7038 262
3696 5162 238
5899 9352 262
166 767 171
7428 8217 252
9118 721 262
540 3054 217
2808 1813 209
2127 7676 262
2007 864 182
9171 7295 252
7976 3261 262
2258 7681 262
3219 687 217
6 3357 217
214 1307 182
4957 794 238
4094 9266 262
7739 5840 262
491 781 171
8649 6921 257
4106 1471 238
1041 6627 262
1242 6761 262
1248 6142 238
5751 9786 262
6781 2403 262
7228 9236 252
8597 5216 262
5178 7746 262
2176 7616 262
8658 7562 252
6588 936 262
5448 2494 238
5200 811 238
9276 7344 260
9712 100 262
5085 3469 238
3975 5986 236
9704 8794 260
8962 1172 262
2782 1496 209
3 428 144
7425 7031 239
4413 8977 262
4946 7194 262
4579 3877 215
2398 1239 183
3003 355 217
6726 8246 257
1354 2420 183
5276 4776 210
5737 7464 262
3761 6655 262
5793 1018 238
3043 4341 238
8141 9872 260
6237 895 262
8118 3028 262
4660 5373 210
9050 7876 252
9812 443 262
9184 3622 262
3866 8021 262
3397 6611 262
462 321 144
6317 676 262
6392 3933 262
2581 7979 262
8903 1001 262
5165 2529 238
651 9387 262
1827 4877 238
6630 784 262
1119 193 179
4859 3786 215
3760 5389 215
1730 5266 238
3456 3821 238
913 9101 262
8389 7200 252
5187 3932 215
8948 5226 262
3662 3560 194
8366 7805 252
6497 9142 257
1014 5216 238
6182 5823 262
8958 1854 262
1169 2331 183
3858 3447 238
1946 1477 180
9429 4192 262
7635 2252 262
203 5636 238
3730 5612 236
8651 5813 262
4586 6783 262
1262 9914 262
8795 8588 216
1117 5223 238
6004 5752 218
3810 2956 238
4425 5128 210
1950 2670 209
25 5774 238
9180 6728 257
319 3898 238
6497 8376 257
86 7336 262
637 7147 262
5968 2512 238
5018 4600 210
146 7358 262
9067 1429 262
3459 379 217
4231 7121 262
5069 2434 238
9397 8869 260
5287 6359 262
2384 4712 238
5045 5090 179
2132 2748 209
2571 5280 238
9888 6146 262
9091 927 262
4903 997 238
1118 6269 262
6413 2630 262
6940 6989 257
5695 5946 218
1897 5204 238
7449 4052 262
7309 1660 262
1673 8327 262
9609 6393 260
7637 258 262
1541 6574 262
7249 6682 257
2936 7927 262
8586 4018 262
927 7681 262
6112 7371 262
979 5635 238
1187 9471 262
6464 2378 262
